{
  "fields": [
    {
      "name": "season_id",
      "type": "integer#unsigned"
    },
    {
      "name": "starts_at",
      "type": "datetime"
    },
    {
      "name": "type",
      "type": "select",
      "options": {
        "practice": "Practice Game",
        "regular": "Regular Season Game",
        "playoff": "Playoff Game"
      }
    },
    {
      "name": "opponent",
      "type": "string"
    }
  ],
  "foreign_keys": [
    {
      "column": "season_id",
      "references": "id",
      "on": "seasons",
      "onDelete": "cascade"
    }
  ],
  "relationships": [
    {
      "name": "season",
      "type": "belongsTo",
      "class": "App\\Season"
    },
    {
      "name": "commitments",
      "type": "hasMany",
      "class": "App\\Commitment"
    },
    {
      "name": "statLines",
      "type": "hasMany",
      "class": "App\\StatLine"
    },
    {
      "name": "lineups",
      "type": "hasMany",
      "class": "App\\Lineup"
    }
  ],
  "validations": [
    {
      "field": "season_id",
      "rules": "required|integer"
    },
    {
      "field": "starts_at",
      "rules": "required|datetime"
    },
    {
      "field": "type",
      "rules": "required"
    },
    {
      "field": "opponent",
      "rules": "required"
    }
  ]
}